Nome e Cognome, EMail 
Pezzini Serenella ,sere.pezzini@gmail.com
Dal Pino Glauco ,Glauco.dpi@virgilio.it
Morotti Silvia,silvia.morotti@tiscali.it
Ruggieri Barbara,b.ruggieri@alice.it
Morabito Isabella,morabit.isa@gmail.com
Palagi Stefania,stefaniapalagi@gmail.com
Giuntoli Marina,Giuntolimarina@gmail.com
Baldassarri Gheila,gheila.baldassarri@gmail.com
Canale Barbara,b71@hotmail.it
Dini Massimiliano,massimilianodini@alice.it
Formichi Francesca,formichifrancesca@libero.it
Maccari Anna ,Rockerilla1960@gmail.com 
Pezzini Armida Rosa Giulia,armidarosagiulia.pezzini@istruzione.it 
