\relax 
\providecommand\hyper@newdestlabel[2]{}
\providecommand\HyperFirstAtBeginDocument{\AtBeginDocument}
\HyperFirstAtBeginDocument{\ifx\hyper@anchor\@undefined
\global\let\oldcontentsline\contentsline
\gdef\contentsline#1#2#3#4{\oldcontentsline{#1}{#2}{#3}}
\global\let\oldnewlabel\newlabel
\gdef\newlabel#1#2{\newlabelxx{#1}#2}
\gdef\newlabelxx#1#2#3#4#5#6{\oldnewlabel{#1}{{#2}{#3}}}
\AtEndDocument{\ifx\hyper@anchor\@undefined
\let\contentsline\oldcontentsline
\let\newlabel\oldnewlabel
\fi}
\fi}
\global\let\hyper@last\relax 
\gdef\HyperFirstAtBeginDocument#1{#1}
\providecommand\HyField@AuxAddToFields[1]{}
\providecommand\HyField@AuxAddToCoFields[2]{}
\@writefile{toc}{\contentsline {section}{PHP}{1}{section*.1}}
\newlabel{header-n374}{{}{1}{PHP}{section*.1}{}}
\@writefile{toc}{\contentsline {subsection}{ini\_set}{1}{section*.2}}
\newlabel{header-n375}{{}{1}{ini\_set}{section*.2}{}}
\@writefile{toc}{\contentsline {subsection}{Switch / If - Else}{1}{section*.3}}
\newlabel{header-n377}{{}{1}{Switch / If - Else}{section*.3}{}}
\@writefile{toc}{\contentsline {subsection}{Cicles}{1}{section*.4}}
\newlabel{header-n379}{{}{1}{Cicles}{section*.4}{}}
\@writefile{toc}{\contentsline {subsection}{Try Catch}{1}{section*.5}}
\newlabel{header-n384}{{}{1}{Try Catch}{section*.5}{}}
\@writefile{toc}{\contentsline {subsection}{Arrays}{2}{section*.6}}
\newlabel{header-n386}{{}{2}{Arrays}{section*.6}{}}
\@writefile{toc}{\contentsline {subsection}{Array Functions}{2}{section*.7}}
\newlabel{header-n388}{{}{2}{Array Functions}{section*.7}{}}
\@writefile{toc}{\contentsline {subsection}{Classes}{2}{section*.8}}
\newlabel{header-n392}{{}{2}{Classes}{section*.8}{}}
\@writefile{toc}{\contentsline {subsection}{Session}{2}{section*.9}}
\newlabel{header-n394}{{}{2}{Session}{section*.9}{}}
\@writefile{toc}{\contentsline {subsection}{Other}{3}{section*.10}}
\newlabel{header-n396}{{}{3}{Other}{section*.10}{}}
\@writefile{toc}{\contentsline {section}{PDO Reference}{3}{section*.11}}
\newlabel{header-n398}{{}{3}{PDO Reference}{section*.11}{}}
\@writefile{toc}{\contentsline {subsection}{Login}{3}{section*.12}}
\newlabel{header-n399}{{}{3}{Login}{section*.12}{}}
\@writefile{toc}{\contentsline {subsection}{Try Catch}{3}{section*.13}}
\newlabel{header-n401}{{}{3}{Try Catch}{section*.13}{}}
\@writefile{toc}{\contentsline {subsection}{DB Query}{3}{section*.14}}
\newlabel{header-n403}{{}{3}{DB Query}{section*.14}{}}
\@writefile{toc}{\contentsline {subsection}{Prepare \& Execute}{3}{section*.15}}
\newlabel{header-n405}{{}{3}{Prepare \& Execute}{section*.15}{}}
\@writefile{toc}{\contentsline {subsection}{Rows Count}{4}{section*.16}}
\newlabel{header-n407}{{}{4}{Rows Count}{section*.16}{}}
\@writefile{toc}{\contentsline {section}{MySQL}{4}{section*.17}}
\newlabel{header-n409}{{}{4}{MySQL}{section*.17}{}}
\@writefile{toc}{\contentsline {subsection}{Data Types}{4}{section*.18}}
\newlabel{header-n410}{{}{4}{Data Types}{section*.18}{}}
\@writefile{toc}{\contentsline {subsection}{Create}{4}{section*.19}}
\newlabel{header-n412}{{}{4}{Create}{section*.19}{}}
\@writefile{toc}{\contentsline {subsection}{Delete}{4}{section*.20}}
\newlabel{header-n414}{{}{4}{Delete}{section*.20}{}}
\@writefile{toc}{\contentsline {subsection}{Drop}{4}{section*.21}}
\newlabel{header-n416}{{}{4}{Drop}{section*.21}{}}
\@writefile{toc}{\contentsline {subsection}{Select}{4}{section*.22}}
\newlabel{header-n418}{{}{4}{Select}{section*.22}{}}
\@writefile{toc}{\contentsline {subsection}{Where}{5}{section*.23}}
\newlabel{header-n420}{{}{5}{Where}{section*.23}{}}
